…
#> Epoch 11, Loss G: 1.1132, Loss D: -0.0001
#> Epoch 12, Loss G: 1.1015, Loss D: 0.0136
#> Epoch 13, Loss G: 1.0568, Loss D: -0.0220
#> Epoch 14, Loss G: 1.0911, Loss D: -0.0036
#> Epoch 15, Loss G: 1.0389, Loss D: -0.0355
#> Epoch 16, Loss G: 1.0149, Loss D: -0.0320
#> Epoch 17, Loss G: 1.0376, Loss D: 0.0366
#> Epoch 18, Loss G: 1.0651, Loss D: -0.0760
#> Epoch 19, Loss G: 0.9866, Loss D: -0.0425
#> Epoch 20, Loss G: 1.0371, Loss D: -0.0767
synthesizer %>% 
  ctgan_sample() %>% 
  # Dataset-specific post-processing
  dplyr::mutate_if(is.numeric, ~ pmax(.x, 0.1))
#> # A tibble: 100 x 5
#>    Sepal.Length Sepal.Width Petal.Length Petal.Width Species   
#>           <dbl>       <dbl>        <dbl>       <dbl> <chr>     
#>  1         5.86        1.77        2.83        1.87  versicolor
#>  2         4.52        3.49        0.182       2.98  setosa    
#>  3         4.50        2.02        0.231       0.405 setosa    
#>  4         6.57        3.12        2.28        3.25  versicolor
#>  5         4.36        3.27        2.01        2.64  virginica 
#>  6         6.98        2.32        2.95        1.71  versicolor
#>  7         4.30        1.59        2.49        0.273 setosa    
#>  8         5.12        1.90        0.521       2.77  versicolor
#>  9         7.23        2.34        0.411       3.09  virginica 
#> 10         5.36        1.99        2.18        1.97  setosa    
#> # … with 90 more rows
```
…
